{% set domains = [webui_vhost] + extra_vhosts %}
[
{% for service_name, service_data in mailman_auth.items() %}
{
    "fields": {
        "name": "{{ service_data.display_name }}",
        "sites": [
            {% for domain in domains %}
            {{ loop.index }}{% if not loop.last %},{% endif %}
            {% endfor %}
        ],
        "client_id": "{{ service_data.client_id }}",
        "secret": "{{ service_data.client_secret }}",
        "key": "",
        "provider": "{{ service_data.provider }}"
    },
    "model": "socialaccount.socialapp",
    "pk": {{ loop.index }}
}{% if not loop.last %},{% endif %}
{% endfor %}
]
